^C:\USERS\VINCENT.I\SOURCE\REPOS\LIVETIMECLOCK\LIVETIMECLOCK\SOURCE.CPP
C:\USERS\VINCENT.I\SOURCE\REPOS\LIVETIMECLOCK\LIVETIMECLOCK\DEBUG\VC141.PDB
C:\USERS\VINCENT.I\SOURCE\REPOS\LIVETIMECLOCK\LIVETIMECLOCK\DEBUG\VC141.IDB
C:\USERS\VINCENT.I\SOURCE\REPOS\LIVETIMECLOCK\LIVETIMECLOCK\DEBUG\SOURCE.OBJ
