^C:\USERS\VINCENT.I\SOURCE\REPOS\SETSTATICIP\SETSTATICIP\SETUPETHERNETADAPTER.CPP
C:\USERS\VINCENT.I\SOURCE\REPOS\SETSTATICIP\SETSTATICIP\DEBUG\VC141.PDB
C:\USERS\VINCENT.I\SOURCE\REPOS\SETSTATICIP\SETSTATICIP\DEBUG\VC141.IDB
C:\USERS\VINCENT.I\SOURCE\REPOS\SETSTATICIP\SETSTATICIP\DEBUG\SETUPETHERNETADAPTER.OBJ
